Node	SET	GET	REMOVE
planetlab2.cs.ubc.ca	0.13	0.14	0.13
cs-planetlab3.cs.surrey.sfu.ca	0.12	0.13	0.14
planetlab4.cs.uoregon.edu	0.13	0.14
planetlab1.unr.edu	0.12	0.13
planetlab2.unr.edu	0.14	0.15
planetlab1.cs.ucla.edu	0.14	0.14
planetlab1.unl.edu	0.12	0.15
planetlab2.cs.purdue.edu	0.12	0.16	0.13